# Exported from Wings 3D 1.5.3
mtllib Divider.mtl
o Divider
#16 vertices, 14 faces
v 4.8665246e-4 -0.59057889 -2.54459633
v 4.8665246e-4 -0.36497889 -2.54459633
v 0.21915865 -0.59057889 -2.54459633
v 0.21915865 -0.36497889 -2.54459633
v 4.4905500e-2 -0.54616004 -2.58901518
v 4.4905500e-2 -0.40939774 -2.58901518
v 0.17473980 -0.40939774 -2.58901518
v 0.17473980 -0.54616004 -2.58901518
v 4.8665246e-4 -0.59057889 -2.00321078
v 4.8665246e-4 -0.36497889 -2.00321078
v 0.21915865 -0.59057889 -2.00321078
v 0.21915865 -0.36497889 -2.00321078
v 4.6682254e-2 -0.41117449 -1.95701518
v 4.6682254e-2 -0.54438329 -1.95701518
v 0.17296305 -0.54438329 -1.95701518
v 0.17296305 -0.41117449 -1.95701518
vn -0.61013148 -0.61013148 -0.50544947
vn -0.61013148 0.61013148 -0.50544947
vn 0.61013148 -0.61013148 -0.50544947
vn 0.61013148 0.61013148 -0.50544947
vn -0.27059805 -0.27059805 -0.92387953
vn -0.27059805 0.27059805 -0.92387953
vn 0.27059805 0.27059805 -0.92387953
vn 0.27059805 -0.27059805 -0.92387953
vn -0.61013148 -0.61013148 0.50544947
vn -0.61013148 0.61013148 0.50544947
vn 0.61013148 -0.61013148 0.50544947
vn 0.61013148 0.61013148 0.50544947
vn -0.27059805 0.27059805 0.92387953
vn -0.27059805 -0.27059805 0.92387953
vn 0.27059805 -0.27059805 0.92387953
vn 0.27059805 0.27059805 0.92387953
g Divider_default
usemtl default
s 1
f 1//1 3//3 11//11 9//9
f 1//1 5//5 8//8 3//3
f 2//2 4//4 7//7 6//6
f 3//3 4//4 12//12 11//11
f 4//4 3//3 8//8 7//7
f 6//6 5//5 1//1 2//2
f 6//6 7//7 8//8 5//5
f 9//9 10//10 2//2 1//1
f 9//9 11//11 15//15 14//14
f 10//10 12//12 4//4 2//2
f 10//10 13//13 16//16 12//12
f 11//11 12//12 16//16 15//15
f 14//14 13//13 10//10 9//9
f 14//14 15//15 16//16 13//13
