# Exported from Wings 3D 1.5.3
mtllib Edge_Inner.mtl
o Edge_Inner
#88 vertices, 84 faces
v 2.13451788 -0.58414386 -2.32043500
v 2.13451788 -0.58414386 5.22073581
v 2.13451788 -0.20414386 -2.32043500
v 2.13451788 -0.20414386 5.22073581
v 2.27018474 -0.58414386 -2.32043500
v 2.27018474 -0.58414386 5.22073581
v 2.27018474 -0.20414386 -2.32043500
v 2.27018474 -0.20414386 5.22073581
v 1.90580756 -0.20414386 -2.83837326
v 1.86099986 -0.20414386 -2.80026588
v 2.13451788 -0.20414386 -0.61905833
v 1.94572689 -0.20414386 -5.3724994e-2
v 1.07001110 -0.20414386 0.94630780
v 2.13451788 -0.20414386 1.06618833
v 2.13451788 -0.58414386 1.06618833
v 1.07001110 -0.58414386 0.94630780
v 1.94572689 -0.58414386 -5.3724994e-2
v 2.13451788 -0.58414386 -0.61905833
v 1.86099986 -0.58414386 -2.80026588
v 1.90580756 -0.58414386 -2.83837326
v 2.09096656 -0.55106903 -0.59306323
v 1.92312854 -0.55106903 -9.0473429e-2
v 1.92312854 -0.23721869 -9.0473429e-2
v 2.09096656 -0.23721869 -0.59306323
v 2.21249422 -0.23721869 -2.34941539
v 2.21249422 -0.55106903 -2.34941539
v 1.93119469 -0.55106903 -2.86084609
v 1.93119469 -0.23721869 -2.86084609
v 2.06574183 -0.55106903 1.08716343
v 2.06574183 -0.23721869 1.08716343
v 1.04741276 -0.23721869 0.98305623
v 1.04741276 -0.55106903 0.98305623
v 1.84371268 -0.55106903 -2.82898245
v 1.84371268 -0.23721869 -2.82898245
v 1.89005953 -0.23721869 -2.86839882
v 1.89005953 -0.55106903 -2.86839882
v 2.08483140 -0.55106903 -2.34903566
v 2.08483140 -0.23721869 -2.34903566
v 1.83512909 -0.23721869 -2.77895412
v 1.83512909 -0.55106903 -2.77895412
v 1.88165469 -0.55106903 -1.7862091e-2
v 0.97920562 -0.55106903 0.92280704
v 0.97920562 -0.23721869 0.92280704
v 1.88165469 -0.23721869 -1.7862091e-2
v 2.10144305 -0.55106903 5.18766098
v 2.10144305 -0.23721869 5.18766098
v 2.10144305 -0.23721869 1.10463983
v 2.10144305 -0.55106903 1.10463983
v 2.30325957 -0.55106903 5.18766098
v 2.30325957 -0.55106903 -2.28736017
v 2.30325957 -0.23721869 -2.28736017
v 2.30325957 -0.23721869 5.18766098
v 2.10144305 -0.55106903 -2.28736017
v 2.10144305 -0.55106903 -0.65750983
v 2.10144305 -0.23721869 -0.65750983
v 2.10144305 -0.23721869 -2.28736017
v 1.91873208 -0.55106903 5.38063337
v 1.91493196 -0.58414386 5.42725362
v 2.26970132 -0.58414386 5.50742938
v 2.30160812 -0.55106903 5.50813192
v 2.30160812 -0.23721869 5.50813192
v 2.26970132 -0.20414386 5.50742938
v 1.91493196 -0.20414386 5.42725362
v 1.91873208 -0.23721869 5.38063337
v 0.51656859 -0.55106903 5.95586711
v 0.51276847 -0.58414386 6.00248736
v 2.26837645 -0.58414386 5.99307698
v 2.30028324 -0.55106903 5.99377952
v 2.30028324 -0.23721869 5.99377952
v 2.26837645 -0.20414386 5.99307698
v 0.51276847 -0.20414386 6.00248736
v 0.51656859 -0.23721869 5.95586711
v 1.65791346 -0.20414386 0.60059536
v 1.80849266 -0.20414386 0.44503606
v 1.71169291 -0.20414386 0.21553581
v 1.71169291 -0.58414386 0.21553581
v 1.80849266 -0.58414386 0.44503606
v 1.65791346 -0.58414386 0.60059536
v 1.61708929 -0.55106903 0.58878746
v 1.77537800 -0.55106903 0.43973269
v 1.68518357 -0.55106903 0.21066385
v 1.68518357 -0.23721869 0.21066385
v 1.77537800 -0.23721869 0.43973269
v 1.61708929 -0.23721869 0.58878746
v 0.96796693 -0.23721869 0.76823130
v 1.06264709 -0.58414386 0.78378693
v 0.96796693 -0.55106903 0.76823130
v 1.06264709 -0.20414386 0.78378693
vn -0.42136091 -0.89967787 0.11416972
vn -0.31622668 -0.94037616 -0.12527313
vn -0.42136091 0.89967787 0.11416972
vn -0.31622668 0.94037616 -0.12527313
vn 0.60124576 -0.70251455 -0.38075826
vn 0.38493930 -0.92294164 6.8002404e-4
vn 0.60124576 0.70251455 -0.38075826
vn 0.38493930 0.92294164 6.8002404e-4
vn 0.17555164 0.77393554 -0.60844507
vn -0.54293659 0.83498569 -8.9547475e-2
vn -0.53433458 0.84079818 -8.6861821e-2
vn -0.49712575 0.81799132 -0.28940661
vn -0.22018046 0.92291515 0.31582937
vn -0.28452232 0.89931780 0.33207612
vn -0.28452232 -0.89931780 0.33207612
vn -0.22018046 -0.92291515 0.31582937
vn -0.49712575 -0.81799132 -0.28940661
vn -0.53433458 -0.84079818 -8.6861821e-2
vn -0.54293659 -0.83498569 -8.9547475e-2
vn 0.17555164 -0.77393554 -0.60844507
vn -0.88873139 -0.40194709 -0.22044287
vn -0.83729592 -0.39966468 -0.37310009
vn -0.83729592 0.39966468 -0.37310009
vn -0.88873139 0.40194709 -0.22044287
vn 0.73044353 -6.5218177e-2 -0.67985207
vn 0.73044353 6.5218177e-2 -0.67985207
vn 0.58523278 -0.17964802 -0.79071435
vn 0.58523278 0.17964802 -0.79071435
vn -0.24206326 -0.43288263 0.86834210
vn -0.24206326 0.43288263 0.86834210
vn -0.35611800 0.42941372 0.82993002
vn -0.35611800 -0.42941372 0.82993002
vn -0.81858431 -0.35376856 -0.45251248
vn -0.81858431 0.35376856 -0.45251248
vn -0.22947195 0.39035570 -0.89160813
vn -0.22947195 -0.39035570 -0.89160813
vn -0.84476299 -0.40065559 0.35475426
vn -0.84476299 0.40065559 0.35475426
vn -0.92531601 0.34574561 0.15572497
vn -0.92531601 -0.34574561 0.15572497
vn -0.75883857 -0.36258067 -0.54101690
vn -0.74329513 -0.53442644 0.40236889
vn -0.74329513 0.53442644 0.40236889
vn -0.75883857 0.36258067 -0.54101690
vn -0.84063747 -0.42626930 -0.33410048
vn -0.84063747 0.42626930 -0.33410048
vn -0.75488452 0.48475899 0.44176700
vn -0.75488452 -0.48475899 0.44176700
vn 0.92481133 -0.38042045 2.0716797e-3
vn 0.85802051 -0.13839407 -0.49461893
vn 0.85802051 0.13839407 -0.49461893
vn 0.92481133 0.38042045 2.0716797e-3
vn -0.90518641 -0.40858379 0.11703352
vn -0.91279498 -0.40194709 -7.2414573e-2
vn -0.91279498 0.40194709 -7.2414573e-2
vn -0.90518641 0.40858379 0.11703352
vn -0.50632803 -0.43390575 -0.74522327
vn -0.18489042 -0.94319714 -0.27603387
vn 0.38907578 -0.92120495 1.2141205e-3
vn 0.92650497 -0.37626776 3.3337526e-3
vn 0.92650497 0.37626776 3.3337526e-3
vn 0.38907578 0.92120495 1.2141205e-3
vn -0.18489042 0.94319714 -0.27603387
vn -0.50632803 0.43390575 -0.74522327
vn -0.56371600 -0.69609755 -0.44460372
vn -0.13769610 -0.96351674 0.22951093
vn 0.33537814 -0.81093825 0.47947956
vn 0.81230407 -0.33161897 0.47978220
vn 0.81230407 0.33161897 0.47978220
vn 0.33537814 0.81093825 0.47947956
vn -0.13769610 0.96351674 0.22951093
vn -0.56371600 0.69609755 -0.44460372
vn -0.25473542 0.86431040 -0.43367892
vn -0.47023130 0.87881006 -8.1088850e-2
vn -0.51839182 0.85050688 -8.8926749e-2
vn -0.51839182 -0.85050688 -8.8926749e-2
vn -0.47023130 -0.87881006 -8.1088850e-2
vn -0.25473542 -0.86431040 -0.43367892
vn -0.45871988 -0.38541439 -0.80064463
vn -0.89392381 -0.41041536 -0.18016507
vn -0.91810788 -0.36423409 -0.15624165
vn -0.91810788 0.36423409 -0.15624165
vn -0.89392381 0.41041536 -0.18016507
vn -0.45871988 0.38541439 -0.80064463
vn -0.62365321 0.56577166 -0.53940625
vn -0.19483200 -0.95070228 -0.24125849
vn -0.62365321 -0.56577166 -0.53940625
vn -0.19483200 0.95070228 -0.24125849
g Edge_Inner_default
usemtl default
s 1
f 1//1 19//19 20//20 5//5
f 1//1 37//37 40//40 19//19
f 2//2 45//45 48//48 15//15
f 2//2 58//58 57//57 45//45
f 3//3 11//11 12//12 75//75 74//74 73//73 88//88 13//13 14//14 4//4 8//8 7//7
f 3//3 56//56 55//55 11//11
f 4//4 63//63 62//62 8//8
f 5//5 6//6 2//2 15//15 16//16 86//86 78//78 77//77 76//76 17//17 18//18 1//1
f 5//5 26//26 50//50
f 5//5 50//50 49//49 6//6
f 6//6 59//59 58//58 2//2
f 7//7 9//9 10//10 3//3
f 7//7 25//25 28//28 9//9
f 7//7 51//51 25//25
f 8//8 52//52 51//51 7//7
f 8//8 62//62 61//61 52//52
f 9//9 35//35 34//34 10//10
f 10//10 39//39 38//38 3//3
f 11//11 24//24 23//23 12//12
f 13//13 31//31 30//30 14//14
f 14//14 47//47 46//46 4//4
f 15//15 29//29 32//32 16//16
f 17//17 22//22 21//21 18//18
f 18//18 54//54 53//53 1//1
f 19//19 33//33 36//36 20//20
f 20//20 27//27 26//26 5//5
f 21//21 54//54 18//18
f 22//22 23//23 24//24 21//21
f 22//22 41//41 44//44 23//23
f 23//23 44//44 12//12
f 24//24 55//55 54//54 21//21
f 25//25 51//51 50//50 26//26
f 26//26 27//27 28//28 25//25
f 27//27 36//36 35//35 28//28
f 28//28 35//35 9//9
f 29//29 48//48 47//47 30//30
f 30//30 31//31 32//32 29//29
f 30//30 47//47 14//14
f 31//31 43//43 42//42 32//32
f 32//32 42//42 16//16
f 33//33 40//40 39//39 34//34
f 34//34 35//35 36//36 33//33
f 34//34 39//39 10//10
f 36//36 27//27 20//20
f 37//37 53//53 56//56 38//38
f 38//38 39//39 40//40 37//37
f 38//38 56//56 3//3
f 40//40 33//33 19//19
f 41//41 22//22 17//17
f 42//42 43//43 85//85 87//87
f 43//43 31//31 13//13
f 44//44 41//41 81//81 82//82
f 45//45 57//57 64//64 46//46
f 46//46 47//47 48//48 45//45
f 46//46 64//64 63//63 4//4
f 48//48 29//29 15//15
f 49//49 60//60 59//59 6//6
f 50//50 51//51 52//52 49//49
f 52//52 61//61 60//60 49//49
f 53//53 37//37 1//1
f 54//54 55//55 56//56 53//53
f 55//55 24//24 11//11
f 57//57 65//65 72//72 64//64
f 58//58 66//66 65//65 57//57
f 59//59 67//67 66//66 58//58
f 60//60 68//68 67//67 59//59
f 61//61 69//69 68//68 60//60
f 62//62 70//70 69//69 61//61
f 63//63 71//71 70//70 62//62
f 64//64 72//72 71//71 63//63
f 66//66 67//67 68//68 69//69 70//70 71//71 72//72 65//65
f 74//74 83//83 84//84 73//73
f 75//75 82//82 83//83 74//74
f 76//76 81//81 41//41 17//17
f 77//77 80//80 81//81 76//76
f 78//78 79//79 80//80 77//77
f 79//79 84//84 83//83 80//80
f 80//80 83//83 82//82 81//81
f 82//82 75//75 12//12 44//44
f 84//84 79//79 87//87 85//85
f 85//85 88//88 73//73 84//84
f 86//86 87//87 79//79 78//78
f 87//87 86//86 16//16 42//42
f 88//88 85//85 43//43 13//13
